#__________________________________________________
# INFO     Copyright © 2021 Altearn.

# Authors: theogiraudet
# Contributors:
# MC Version: 1.13
# Last check: 1.16.1

# Original path: glib:orientation/get
# Parallelizable: true
# Note: It was excessively more impressive in 1.12 ...

#__________________________________________________
# PARAMETERS

#__________________________________________________
# INIT

#__________________________________________________
# CONFIG

#__________________________________________________
# CODE

function glib:orientation/get_h
function glib:orientation/get_v
