#__________________________________________________
# INFO     Copyright © 2021 Altearn.

# Authors: theogiraudet
# Contributors:
# MC Version: 1.13
# Last check: 1.16.1

# Original path: glib:orientation/get_h
# Parallelizable: true
# Note: It was excessively more impressive in 1.12 ...

#__________________________________________________
# PARAMETERS

#__________________________________________________
# INIT

scoreboard objectives add glib.oriH dummy [{"text":"GLib ","color":"gold"},{"text":"Orientation H","color":"dark_gray"}]

#__________________________________________________
# CONFIG

#__________________________________________________
# CODE
function glib_utils:default_entity

execute store result score @s glib.oriH run data get entity @e[tag=glib.new,limit=1,sort=nearest] Rotation[0] 1
