#__________________________________________________
# INFO     Copyright © 2021 Altearn.

# Authors: Leirof
# Contributors:
# MC Version: 1.13
# Last check:

# Original path: glib:location/get_distance_as_to_at/accuracy/10-3
# Documentation: https://glib-core.readthedocs.io//entity#location
# Parallelizable: <true/false/global>
# Note: It was excessively more impressive in 1.12...

#__________________________________________________
# PARAMETERS

#__________________________________________________
# INIT

#__________________________________________________
# CONFIG

#__________________________________________________
# CODE

function glib:location/get_distance_squared_as_to_at/accuracy/10-3

scoreboard players operation @s glib.var0 = @s glib.res0

function glib:math/sqrt
