#__________________________________________________
# INFO     Copyright © 2021 Altearn.

# Authors: Leirof
# Contributors:
# MC Version: 1.13
# Last check: 1.16.1

# Original path: glib:link/create_link_to_target_id
# Parallelizable: true
# Note: @s must have glib.link.to defined (equal to another entity id)

#__________________________________________________
# PARAMETERS

#__________________________________________________
# INIT

#__________________________________________________
# CONFIG

#__________________________________________________
# CODE

function glib:id/check

execute at @e[tag=glib.id.match,limit=1,sort=nearest] run function glib:link/create_link_ata
