#__________________________________________________
# INFO     Copyright © 2021 Altearn.

# Authors: Leirof
# Contributors:
# MC Version: 1.13
# Last check: 1.16.1

# Original path: glib:location/get/accuracy/10-3
# Parallelizable: true
# Note: It was excessively more impressive in 1.12...

#__________________________________________________
# PARAMETERS

#__________________________________________________
# INIT

#__________________________________________________
# CONFIG

#__________________________________________________
# CODE

function glib:location/get_x/accuracy/10-3
function glib:location/get_y/accuracy/10-3
function glib:location/get_z/accuracy/10-3
